[{
	"data": [{
		"type": "fn_attack_events_v1",
		"id": 1,
		"attributes": {
			"userfirstname": "Chris",
			"userlastname": "Ha",
			"useremailaddress": "chris.ha@pgn.com",
			"useractiveflag": true,
			"userdeleteddate": null,
			"senttimestamp": "2022-07-15T22:00:53",
			"eventtimestamp": "2022-07-18T23:14:20",
			"eventtype": "Email View",
			"campaignname": "July 2022 - All Employees",
			"autoenrollment": false,
			"campaignstartdate": "2022-07-14T12:00:00",
			"campaignenddate": "2022-07-20T20:00:02",
			"campaigntype": "Drive By",
			"campaignstatus": "Sent",
			"templatename": "Amazon Shipment (Hard)",
			"templatesubject": "Amazon - Track Your Package",
			"assessmentisarchived": false,
			"usertags": null,
			"sso_id": "E10190"
		}
	}, {
		"type": "fn_attack_events_v1",
		"id": 2,
		"attributes": {
			"userfirstname": "Joel",
			"userlastname": "Downing",
			"useremailaddress": "joel.downing@pgn.com",
			"useractiveflag": true,
			"userdeleteddate": null,
			"senttimestamp": "2022-07-14T18:21:40",
			"eventtimestamp": "2022-07-18T23:09:30",
			"eventtype": "Email View",
			"campaignname": "July 2022 - All Employees",
			"autoenrollment": false,
			"campaignstartdate": "2022-07-14T12:00:00",
			"campaignenddate": "2022-07-20T20:00:02",
			"campaigntype": "Drive By",
			"campaignstatus": "Sent",
			"templatename": "Amazon Shipment (Hard)",
			"templatesubject": "Amazon - Track Your Package",
			"assessmentisarchived": false,
			"usertags": null,
			"sso_id": "E08623"
		}
	}, {
		"type": "fn_attack_events_v1",
		"id": 3,
		"attributes": {
			"userfirstname": "Rich",
			"userlastname": "Lammers",
			"useremailaddress": "rich.lammers@pgn.com",
			"useractiveflag": true,
			"userdeleteddate": null,
			"senttimestamp": "2022-07-15T23:40:31",
			"eventtimestamp": "2022-07-18T22:08:44",
			"eventtype": "Email View",
			"campaignname": "July 2022 - All Employees",
			"autoenrollment": false,
			"campaignstartdate": "2022-07-14T12:00:00",
			"campaignenddate": "2022-07-20T20:00:02",
			"campaigntype": "Drive By",
			"campaignstatus": "Sent",
			"templatename": "Linked In Connection Request",
			"templatesubject": "%FIRSTNAME%, please add me to your LinkedIn network",
			"assessmentisarchived": false,
			"usertags": null,
			"sso_id": "E77855"
		}
	}, {
		"type": "fn_attack_events_v1",
		"id": 4,
		"attributes": {
			"userfirstname": "Rich",
			"userlastname": "Lammers",
			"useremailaddress": "rich.lammers@pgn.com",
			"useractiveflag": true,
			"userdeleteddate": null,
			"senttimestamp": "2022-07-15T23:40:31",
			"eventtimestamp": "2022-07-18T22:08:39",
			"eventtype": "Email View",
			"campaignname": "July 2022 - All Employees",
			"autoenrollment": false,
			"campaignstartdate": "2022-07-14T12:00:00",
			"campaignenddate": "2022-07-20T20:00:02",
			"campaigntype": "Drive By",
			"campaignstatus": "Sent",
			"templatename": "Linked In Connection Request",
			"templatesubject": "%FIRSTNAME%, please add me to your LinkedIn network",
			"assessmentisarchived": false,
			"usertags": null,
			"sso_id": "E77855"
		}
	}, {
		"type": "fn_attack_events_v1",
		"id": 5,
		"attributes": {
			"userfirstname": "Rich",
			"userlastname": "Lammers",
			"useremailaddress": "rich.lammers@pgn.com",
			"useractiveflag": true,
			"userdeleteddate": null,
			"senttimestamp": "2022-07-15T23:40:31",
			"eventtimestamp": "2022-07-18T22:07:57",
			"eventtype": "Email View",
			"campaignname": "July 2022 - All Employees",
			"autoenrollment": false,
			"campaignstartdate": "2022-07-14T12:00:00",
			"campaignenddate": "2022-07-20T20:00:02",
			"campaigntype": "Drive By",
			"campaignstatus": "Sent",
			"templatename": "Linked In Connection Request",
			"templatesubject": "%FIRSTNAME%, please add me to your LinkedIn network",
			"assessmentisarchived": false,
			"usertags": null,
			"sso_id": "E77855"
		}
	}, {
		"type": "fn_attack_events_v1",
		"id": 6,
		"attributes": {
			"userfirstname": "Cody",
			"userlastname": "Drumheller",
			"useremailaddress": "cody.drumheller@pgn.com",
			"useractiveflag": true,
			"userdeleteddate": null,
			"senttimestamp": "2022-07-14T23:51:53",
			"eventtimestamp": "2022-07-18T21:12:00",
			"eventtype": "Email View",
			"campaignname": "July 2022 - All Employees",
			"autoenrollment": false,
			"campaignstartdate": "2022-07-14T12:00:00",
			"campaignenddate": "2022-07-20T20:00:02",
			"campaigntype": "Drive By",
			"campaignstatus": "Sent",
			"templatename": "Linked In Connection Request",
			"templatesubject": "%FIRSTNAME%, please add me to your LinkedIn network",
			"assessmentisarchived": false,
			"usertags": null,
			"sso_id": "E05811"
		}
	}, {
		"type": "fn_attack_events_v1",
		"id": 7,
		"attributes": {
			"userfirstname": "Cody",
			"userlastname": "Drumheller",
			"useremailaddress": "cody.drumheller@pgn.com",
			"useractiveflag": true,
			"userdeleteddate": null,
			"senttimestamp": "2022-07-14T23:51:53",
			"eventtimestamp": "2022-07-18T21:12:00",
			"eventtype": "Email View",
			"campaignname": "July 2022 - All Employees",
			"autoenrollment": false,
			"campaignstartdate": "2022-07-14T12:00:00",
			"campaignenddate": "2022-07-20T20:00:02",
			"campaigntype": "Drive By",
			"campaignstatus": "Sent",
			"templatename": "Linked In Connection Request",
			"templatesubject": "%FIRSTNAME%, please add me to your LinkedIn network",
			"assessmentisarchived": false,
			"usertags": null,
			"sso_id": "E05811"
		}
	}, {
		"type": "fn_attack_events_v1",
		"id": 8,
		"attributes": {
			"userfirstname": "Thomas",
			"userlastname": "Finch",
			"useremailaddress": "thomas.finch@pgn.com",
			"useractiveflag": true,
			"userdeleteddate": null,
			"senttimestamp": "2022-07-14T18:48:48",
			"eventtimestamp": "2022-07-18T21:11:04",
			"eventtype": "Email View",
			"campaignname": "July 2022 - All Employees",
			"autoenrollment": false,
			"campaignstartdate": "2022-07-14T12:00:00",
			"campaignenddate": "2022-07-20T20:00:02",
			"campaigntype": "Drive By",
			"campaignstatus": "Sent",
			"templatename": "Linked In Connection Request",
			"templatesubject": "%FIRSTNAME%, please add me to your LinkedIn network",
			"assessmentisarchived": false,
			"usertags": null,
			"sso_id": "E77000"
		}
	}, {
		"type": "fn_attack_events_v1",
		"id": 9,
		"attributes": {
			"userfirstname": "Thomas",
			"userlastname": "Finch",
			"useremailaddress": "thomas.finch@pgn.com",
			"useractiveflag": true,
			"userdeleteddate": null,
			"senttimestamp": "2022-07-14T18:48:48",
			"eventtimestamp": "2022-07-18T21:10:30",
			"eventtype": "Email View",
			"campaignname": "July 2022 - All Employees",
			"autoenrollment": false,
			"campaignstartdate": "2022-07-14T12:00:00",
			"campaignenddate": "2022-07-20T20:00:02",
			"campaigntype": "Drive By",
			"campaignstatus": "Sent",
			"templatename": "Linked In Connection Request",
			"templatesubject": "%FIRSTNAME%, please add me to your LinkedIn network",
			"assessmentisarchived": false,
			"usertags": null,
			"sso_id": "E77000"
		}
	}, {
		"type": "fn_attack_events_v1",
		"id": 10,
		"attributes": {
			"userfirstname": "Aroun",
			"userlastname": "Xaybanha",
			"useremailaddress": "aroun.xaybanha@pgn.com",
			"useractiveflag": true,
			"userdeleteddate": null,
			"senttimestamp": "2022-07-15T22:11:31",
			"eventtimestamp": "2022-07-18T19:40:46",
			"eventtype": "Email View",
			"campaignname": "July 2022 - All Employees",
			"autoenrollment": false,
			"campaignstartdate": "2022-07-14T12:00:00",
			"campaignenddate": "2022-07-20T20:00:02",
			"campaigntype": "Drive By",
			"campaignstatus": "Sent",
			"templatename": "Linked In Connection Request",
			"templatesubject": "%FIRSTNAME%, please add me to your LinkedIn network",
			"assessmentisarchived": false,
			"usertags": null,
			"sso_id": "E72429"
		}
	}, {
		"type": "fn_attack_events_v1",
		"id": 11,
		"attributes": {
			"userfirstname": "Aroun",
			"userlastname": "Xaybanha",
			"useremailaddress": "aroun.xaybanha@pgn.com",
			"useractiveflag": true,
			"userdeleteddate": null,
			"senttimestamp": "2022-07-15T22:11:31",
			"eventtimestamp": "2022-07-18T19:40:46",
			"eventtype": "Email View",
			"campaignname": "July 2022 - All Employees",
			"autoenrollment": false,
			"campaignstartdate": "2022-07-14T12:00:00",
			"campaignenddate": "2022-07-20T20:00:02",
			"campaigntype": "Drive By",
			"campaignstatus": "Sent",
			"templatename": "Linked In Connection Request",
			"templatesubject": "%FIRSTNAME%, please add me to your LinkedIn network",
			"assessmentisarchived": false,
			"usertags": null,
			"sso_id": "E72429"
		}
	}, {
		"type": "fn_attack_events_v1",
		"id": 12,
		"attributes": {
			"userfirstname": "Kellie",
			"userlastname": "Cloud",
			"useremailaddress": "kellie.cloud@pgn.com",
			"useractiveflag": true,
			"userdeleteddate": null,
			"senttimestamp": "2022-07-14T23:13:07",
			"eventtimestamp": "2022-07-18T19:35:43",
			"eventtype": "Email Click",
			"campaignname": "July 2022 - All Employees",
			"autoenrollment": false,
			"campaignstartdate": "2022-07-14T12:00:00",
			"campaignenddate": "2022-07-20T20:00:02",
			"campaigntype": "Drive By",
			"campaignstatus": "Sent",
			"templatename": "Amazon Shipment (Hard)",
			"templatesubject": "Amazon - Track Your Package",
			"assessmentisarchived": false,
			"usertags": null,
			"sso_id": "E20073"
		}
	}, {
		"type": "fn_attack_events_v1",
		"id": 13,
		"attributes": {
			"userfirstname": "Kellie",
			"userlastname": "Cloud",
			"useremailaddress": "kellie.cloud@pgn.com",
			"useractiveflag": true,
			"userdeleteddate": null,
			"senttimestamp": "2022-07-14T23:13:07",
			"eventtimestamp": "2022-07-18T19:35:43",
			"eventtype": "Email View",
			"campaignname": "July 2022 - All Employees",
			"autoenrollment": false,
			"campaignstartdate": "2022-07-14T12:00:00",
			"campaignenddate": "2022-07-20T20:00:02",
			"campaigntype": "Drive By",
			"campaignstatus": "Sent",
			"templatename": "Amazon Shipment (Hard)",
			"templatesubject": "Amazon - Track Your Package",
			"assessmentisarchived": false,
			"usertags": null,
			"sso_id": "E20073"
		}
	}, {
		"type": "fn_attack_events_v1",
		"id": 14,
		"attributes": {
			"userfirstname": "Alexander",
			"userlastname": "Mundlin",
			"useremailaddress": "alexander.mundlin@pgn.com",
			"useractiveflag": true,
			"userdeleteddate": null,
			"senttimestamp": "2022-07-15T23:49:42",
			"eventtimestamp": "2022-07-18T18:01:22",
			"eventtype": "Email View",
			"campaignname": "July 2022 - All Employees",
			"autoenrollment": false,
			"campaignstartdate": "2022-07-14T12:00:00",
			"campaignenddate": "2022-07-20T20:00:02",
			"campaigntype": "Drive By",
			"campaignstatus": "Sent",
			"templatename": "Experimental Month Will End",
			"templatesubject": "[EXTERNAL] Your experimental month will end in one day K426880965. You'll be immediately switched to our improved plan!.",
			"assessmentisarchived": false,
			"usertags": null,
			"sso_id": "E47325"
		}
	}, {
		"type": "fn_attack_events_v1",
		"id": 15,
		"attributes": {
			"userfirstname": "Gabe",
			"userlastname": "Montero",
			"useremailaddress": "gabe.montero@pgn.com",
			"useractiveflag": true,
			"userdeleteddate": null,
			"senttimestamp": "2022-07-15T20:46:00",
			"eventtimestamp": "2022-07-18T18:00:07",
			"eventtype": "Email View",
			"campaignname": "July 2022 - All Employees",
			"autoenrollment": false,
			"campaignstartdate": "2022-07-14T12:00:00",
			"campaignenddate": "2022-07-20T20:00:02",
			"campaigntype": "Drive By",
			"campaignstatus": "Sent",
			"templatename": "Linked In Connection Request",
			"templatesubject": "%FIRSTNAME%, please add me to your LinkedIn network",
			"assessmentisarchived": false,
			"usertags": null,
			"sso_id": "E02656"
		}
	}, {
		"type": "fn_attack_events_v1",
		"id": 16,
		"attributes": {
			"userfirstname": "Jade",
			"userlastname": "Trujillo",
			"useremailaddress": "jade.trujillo@pgn.com",
			"useractiveflag": true,
			"userdeleteddate": null,
			"senttimestamp": "2022-07-15T17:23:58",
			"eventtimestamp": "2022-07-18T17:47:48",
			"eventtype": "Email View",
			"campaignname": "July 2022 - All Employees",
			"autoenrollment": false,
			"campaignstartdate": "2022-07-14T12:00:00",
			"campaignenddate": "2022-07-20T20:00:02",
			"campaigntype": "Drive By",
			"campaignstatus": "Sent",
			"templatename": "Experimental Month Will End",
			"templatesubject": "[EXTERNAL] Your experimental month will end in one day K426880965. You'll be immediately switched to our improved plan!.",
			"assessmentisarchived": false,
			"usertags": null,
			"sso_id": "E09328"
		}
	}, {
		"type": "fn_attack_events_v1",
		"id": 17,
		"attributes": {
			"userfirstname": "John",
			"userlastname": "Mahoney",
			"useremailaddress": "john.mahoney@pgn.com",
			"useractiveflag": true,
			"userdeleteddate": null,
			"senttimestamp": "2022-07-14T20:02:09",
			"eventtimestamp": "2022-07-18T17:43:46",
			"eventtype": "Email View",
			"campaignname": "July 2022 - All Employees",
			"autoenrollment": false,
			"campaignstartdate": "2022-07-14T12:00:00",
			"campaignenddate": "2022-07-20T20:00:02",
			"campaigntype": "Drive By",
			"campaignstatus": "Sent",
			"templatename": "Experimental Month Will End",
			"templatesubject": "[EXTERNAL] Your experimental month will end in one day K426880965. You'll be immediately switched to our improved plan!.",
			"assessmentisarchived": false,
			"usertags": null,
			"sso_id": "E02848"
		}
	}, {
		"type": "fn_attack_events_v1",
		"id": 18,
		"attributes": {
			"userfirstname": "Thomas",
			"userlastname": "Van Hoon",
			"useremailaddress": "thomas.van.hoon@pgn.com",
			"useractiveflag": true,
			"userdeleteddate": null,
			"senttimestamp": "2022-07-15T22:16:16",
			"eventtimestamp": "2022-07-18T17:40:04",
			"eventtype": "Email View",
			"campaignname": "July 2022 - All Employees",
			"autoenrollment": false,
			"campaignstartdate": "2022-07-14T12:00:00",
			"campaignenddate": "2022-07-20T20:00:02",
			"campaigntype": "Drive By",
			"campaignstatus": "Sent",
			"templatename": "Linked In Connection Request",
			"templatesubject": "%FIRSTNAME%, please add me to your LinkedIn network",
			"assessmentisarchived": false,
			"usertags": null,
			"sso_id": "E66925"
		}
	}, {
		"type": "fn_attack_events_v1",
		"id": 19,
		"attributes": {
			"userfirstname": "Thomas",
			"userlastname": "Van Hoon",
			"useremailaddress": "thomas.van.hoon@pgn.com",
			"useractiveflag": true,
			"userdeleteddate": null,
			"senttimestamp": "2022-07-15T22:16:16",
			"eventtimestamp": "2022-07-18T17:40:04",
			"eventtype": "Email View",
			"campaignname": "July 2022 - All Employees",
			"autoenrollment": false,
			"campaignstartdate": "2022-07-14T12:00:00",
			"campaignenddate": "2022-07-20T20:00:02",
			"campaigntype": "Drive By",
			"campaignstatus": "Sent",
			"templatename": "Linked In Connection Request",
			"templatesubject": "%FIRSTNAME%, please add me to your LinkedIn network",
			"assessmentisarchived": false,
			"usertags": null,
			"sso_id": "E66925"
		}
	}, {
		"type": "fn_attack_events_v1",
		"id": 20,
		"attributes": {
			"userfirstname": "David",
			"userlastname": "Silva",
			"useremailaddress": "david.silva@pgn.com",
			"useractiveflag": true,
			"userdeleteddate": null,
			"senttimestamp": "2022-07-14T19:28:08",
			"eventtimestamp": "2022-07-18T17:24:48",
			"eventtype": "Email Click",
			"campaignname": "July 2022 - All Employees",
			"autoenrollment": false,
			"campaignstartdate": "2022-07-14T12:00:00",
			"campaignenddate": "2022-07-20T20:00:02",
			"campaigntype": "Drive By",
			"campaignstatus": "Sent",
			"templatename": "Amazon Shipment (Hard)",
			"templatesubject": "Amazon - Track Your Package",
			"assessmentisarchived": false,
			"usertags": null,
			"sso_id": "E60449"
		}
	}],
	"links": {
		"self": "/api/reporting/v0.1.0/phishing",
		"first": "/api/reporting/v0.1.0/phishing",
		"last": "/api/reporting/v0.1.0/phishing?page%5Bnumber%5D=2515",
		"next": "/api/reporting/v0.1.0/phishing?page%5Bnumber%5D=2"
	},
	"meta": {
		"page_number": 1,
		"page_size": 20,
		"count": 50289
	},
	"jsonapi": {
		"version": "1.0"
	}
}]